<svg width="176" height="176" viewBox="0 0 176 176" fill="none" xmlns="http://www.w3.org/2000/svg">
<mask id="path-1-inside-1_959_37" fill="white">
<rect x="126" y="63" width="50" height="50" rx="5"/>
</mask>
<rect x="126" y="63" width="50" height="50" rx="5" stroke="black" stroke-width="20" mask="url(#path-1-inside-1_959_37)"/>
<mask id="path-2-inside-2_959_37" fill="white">
<rect x="63" y="126" width="50" height="50" rx="5"/>
</mask>
<rect x="63" y="126" width="50" height="50" rx="5" stroke="black" stroke-width="20" mask="url(#path-2-inside-2_959_37)"/>
<mask id="path-3-inside-3_959_37" fill="white">
<rect x="63" width="50" height="50" rx="5"/>
</mask>
<rect x="63" width="50" height="50" rx="5" stroke="black" stroke-width="20" mask="url(#path-3-inside-3_959_37)"/>
<mask id="path-4-inside-4_959_37" fill="white">
<rect y="63" width="50" height="50" rx="5"/>
</mask>
<rect y="63" width="50" height="50" rx="5" stroke="black" stroke-width="20" mask="url(#path-4-inside-4_959_37)"/>
<line x1="28.468" y1="147.262" x2="39.0746" y2="136.655" stroke="black" stroke-width="10" stroke-linecap="round"/>
<line x1="51.0955" y1="124.635" x2="61.7021" y2="114.028" stroke="black" stroke-width="10" stroke-linecap="round"/>
<line x1="73.7229" y1="102.007" x2="84.3295" y2="91.4006" stroke="black" stroke-width="10" stroke-linecap="round"/>
<line x1="91.4005" y1="84.3295" x2="102.007" y2="73.7229" stroke="black" stroke-width="10" stroke-linecap="round"/>
<line x1="114.028" y1="61.7021" x2="124.635" y2="51.0955" stroke="black" stroke-width="10" stroke-linecap="round"/>
<line x1="136.655" y1="39.0746" x2="147.262" y2="28.468" stroke="black" stroke-width="10" stroke-linecap="round"/>
<line x1="147.262" y1="147.262" x2="136.655" y2="136.655" stroke="black" stroke-width="10" stroke-linecap="round"/>
<line x1="124.635" y1="124.635" x2="114.028" y2="114.028" stroke="black" stroke-width="10" stroke-linecap="round"/>
<line x1="102.007" y1="102.007" x2="91.4006" y2="91.4005" stroke="black" stroke-width="10" stroke-linecap="round"/>
<line x1="84.3295" y1="84.3295" x2="73.7229" y2="73.7229" stroke="black" stroke-width="10" stroke-linecap="round"/>
<line x1="61.7021" y1="61.7021" x2="51.0955" y2="51.0955" stroke="black" stroke-width="10" stroke-linecap="round"/>
<line x1="39.0746" y1="39.0746" x2="28.468" y2="28.468" stroke="black" stroke-width="10" stroke-linecap="round"/>
</svg>
